{
    "code": 0,
    "data": [
        {
            "name": "Google",
            "content": "啊啊啊啊啊啊"
        },
        {
            "name": "baidu",
            "content": "支持支持"
        },
        {
            "name": "sogou",
            "content": "否定否定"
        }
    ]
}