{
    "code": 0,
    "data": [
        {
            "title": "篮球场旁建造洗手池",
            "desc": "体育课上完后精疲力竭，但各个厕所都离篮球场地有一定的距离，洗手很麻烦，强烈要求篮球场旁建造一个洗手池！",
            "supportNum": 20,
            "imgUrl": "http://n.sinaimg.cn/sports/2_img/upload/4c53f12c/106/w1024h682/20190928/98a9-ifffqup6021676.jpg",
            "starttime": "Fri Sept 20 2019 10:14:14 GMT+0800 (中国标准时间)",
            "comment": [
                        {
                            "name": "小明",
                            "content": "怒赞！"
                        },
                        {
                            "name": "小王",
                            "content": "是的，篮球场旁边的洗手池问题早该解决了！！上完篮球课带着一双脏手回去也是醉了！！！"
                        },
                        {
                            "name": "小欧",
                            "content": "说的对说的对，这个问题我之前也遇到！"
                        },
                        {
                            "name": "霸道明总",
                            "content": "洗手池必须C位出道！！！！！！！！！！"
                        },
                        {
                            "name": "云胡不喜",
                            "content": "但是篮球场旁边感觉没有什么场地啊，这个是不是还需要再考虑一下！"
                        }
                    ]
        },
        {
            "title": "增设图书馆网上订座系统",
            "desc": "建议图书馆增设网上预订座位系统，在预订座位后需要十五分钟内赶到图书馆对应位置的桌上扫码入座，超时则自动取消预订。",
            "supportNum": 15,
            "imgUrl": "https://att01.zjut.cc/attachment/college/album/big/yzy/img1/p00033411.jpeg",
            "starttime": "Mon Sep 23 2019 10:14:14 GMT+0800 (中国标准时间)",
            "comment": [
                        {
                            "name": "毛毛",
                            "content": "早就想说了"
                        },
                        {
                            "name": "纯纯",
                            "content": "图书馆预约制度必须有！要不然每次来的时候发现没位置坐真的好烦"
                        },
                        {
                            "name": "猴猴",
                            "content": "无所谓。。。。。。"
                        }
                    ]
        },
        {
            "title": "修理部分后山路灯照明问题",
            "desc": "后山部分路灯破损，在晚上时或直接不亮或一直不停闪烁，无法满足同学们晚上出行时的照明需求，存在安全风险。",
            "supportNum": 14,
            "imgUrl": "https://att01.zjut.cc/attachment/college/album/big/yzy/img2/p00033389_800.jpeg",
            "starttime": "Wed Sept 25 2019 10:14:14 GMT+0800 (中国标准时间)",
            "comment": [
                        {
                            "name": "菜菜",
                            "content": "啊啊啊啊啊啊"
                        },
                        {
                            "name": "水管工",
                            "content": "早就想说了，之前就看到后山的路灯一闪一闪的"
                        },
                        {
                            "name": "不可一世",
                            "content": "复习期间有好多朋友还有为人占座的习惯！支持图书馆座位实名预约制！"
                        }
                    ]
        },
        {
            "title": "要求食堂大妈手稳一点！",
            "desc": "食堂大妈手太抖了！",
            "supportNum": 3,
            "imgUrl": "https://att01.zjut.cc/attachment/college/album/big/yzy/img2/p00033390_800.jpeg",
            "starttime": "Fri Sept 27 2019 10:14:14 GMT+0800 (中国标准时间)",
            "comment": [
                        {
                            "name": "吃瓜群众一号",
                            "content": "哈哈哈哈哈哈哈"
                        },
                        {
                            "name": "我是食堂大妈",
                            "content": "没有啊我没有"
                        },
                        {
                            "name": "sogou",
                            "content": "否定否定"
                        }
                    ]
        },
        {
            "title": "家和二楼的面",
            "desc": "家和二楼的面怎么一直不开了",
            "supportNum": 3,
            "imgUrl": "https://att01.zjut.cc/attachment/college/album/big/yzy/img2/p00033385_800.jpeg",
            "starttime": "Wed Oct 2 2019 21:14:14 GMT+0800 (中国标准时间)",
            "comment": [
                        {
                            "name": "小一",
                            "content": "同"
                        },
                        {
                            "name": "小二",
                            "content": "+1"
                        },
                        {
                            "name": "三号",
                            "content": "+10086"
                        }
                    ]
        }
    ]
}